…
  select(-delay_estimate) %>% 
  rename(incongruent_se = delay_se) %>% 
  # Shape back into long format
  tidyr::gather(cond_term, value, -level) %>% 
  tidyr::separate(cond_term, into = c("condition", "term")) %>%  
  tidyr::spread(term, value) %>% 
  readr::type_convert() %>% 
  rename(ID = level)
#> Parsed with column specification:
#> cols(
#>   level = col_integer(),
#>   condition = col_character()
#> )
long_estimates
#> # A tibble: 242 x 4
#>       ID   condition estimate       se
#> *  <int>       <chr>    <dbl>    <dbl>
#> 1      1   congruent 641.7621 22.87287
#> 2      1 incongruent 722.5674 18.08475
#> 3     10   congruent 708.9728 22.58101
#> 4     10 incongruent 776.4687 18.02305
#> 5    100   congruent 830.1271 22.78615
#> 6    100 incongruent 879.7960 18.06210
#> 7    101   congruent 748.1534 22.52612
#> 8    101 incongruent 800.5423 18.01151
#> 9    102   congruent 586.9757 23.38214
#> 10   102 incongruent 673.7583 18.17591
#> # ... with 232 more rows
…
